<?xml version="1.0" encoding="utf-8"?>
<!-- Generator: Adobe Illustrator 19.0.0, SVG Export Plug-In . SVG Version: 6.00 Build 0)  -->
<svg version="1.1" id="Layer_1" xmlns="http://www.w3.org/2000/svg" xmlns:xlink="http://www.w3.org/1999/xlink" x="0px" y="0px"
	 viewBox="-285 377 40 40" style="enable-background:new -285 377 40 40;" xml:space="preserve">
<style type="text/css">
	.st0{fill:#FFC749;}
</style>
<path class="st0" d="M-249.9,398.3h-30.3c-0.7,0-1.3-0.6-1.3-1.3l0,0c0-0.7,0.6-1.3,1.3-1.3h30.3c0.7,0,1.3,0.6,1.3,1.3l0,0
	C-248.5,397.7-249.1,398.3-249.9,398.3z"/>
<path class="st0" d="M-249.9,387.2h-30.3c-0.7,0-1.3-0.6-1.3-1.3l0,0c0-0.7,0.6-1.3,1.3-1.3h30.3c0.7,0,1.3,0.6,1.3,1.3l0,0
	C-248.5,386.6-249.1,387.2-249.9,387.2z"/>
<path class="st0" d="M-249.9,409.5h-30.3c-0.7,0-1.3-0.6-1.3-1.3l0,0c0-0.7,0.6-1.3,1.3-1.3h30.3c0.7,0,1.3,0.6,1.3,1.3l0,0
	C-248.5,408.9-249.1,409.5-249.9,409.5z"/>
</svg>
